processor.vcd
$date
	Sun Jul 06 11:43:52 2014
$end
$version
	Icarus Verilog
$end
$timescale
	1s
$end
$scope module processor $end
$var wire 1 ! alu_en $end
$var wire 16 " alu_flag_o [15:0] $end
$var wire 5 # alu_func [4:0] $end
$var wire 32 $ alu_i1 [31:0] $end
$var wire 32 % alu_i2 [31:0] $end
$var wire 16 & alu_o1 [15:0] $end
$var wire 16 ' alu_o2 [15:0] $end
$var wire 1 ( bus_1_copy_en $end
$var wire 16 ) bus_1_copy_o [15:0] $end
$var wire 1 * cl_size $end
$var wire 1 + clk $end
$var wire 48 , cmd_o [47:0] $end
$var wire 1 - cmd_rw $end
$var wire 16 . cr [15:0] $end
$var wire 1 / decode_en $end
$var wire 1 0 execute_en $end
$var wire 1 1 fetch_en $end
$var wire 16 2 jmp_addr [15:0] $end
$var wire 1 3 jmp_en $end
$var wire 16 4 loop_cnt_o [15:0] $end
$var wire 1 5 loop_en $end
$var wire 16 6 mem_addr [15:0] $end
$var wire 32 7 mem_addr_decode [31:0] $end
$var wire 48 8 mem_r [47:0] $end
$var wire 2 9 mem_rw [1:0] $end
$var wire 2 : pc_inc [1:0] $end
$var wire 2 ; pc_inc_o [1:0] $end
$var wire 16 < pc_o [15:0] $end
$var wire 1 = pc_rw $end
$var wire 4 > state [3:0] $end
$var wire 1 ? sys_en $end
$var wire 1 @ write_en $end
$scope module bus0r $end
$var wire 1 + clk $end
$var wire 16 A i [15:0] $end
$var reg 16 B o [15:0] $end
$upscope $end
$scope module bus1r $end
$var wire 1 + clk $end
$var wire 16 C i [15:0] $end
$var reg 16 D o [15:0] $end
$upscope $end
$scope module clock $end
$var reg 1 E clk $end
$var reg 4 F state [3:0] $end
$upscope $end
$scope module memory $end
$var wire 16 G addr [15:0] $end
$var wire 1 + clk $end
$var wire 32 H idata [31:0] $end
$var wire 48 I odata [47:0] $end
$var wire 2 J rw [1:0] $end
$upscope $end
$scope module pc $end
$var wire 1 + clk $end
$var wire 16 K i [15:0] $end
$var wire 2 L inc [1:0] $end
$var wire 1 = rw $end
$var reg 16 M o [15:0] $end
$upscope $end
$scope module cmd $end
$var wire 1 + clk $end
$var wire 48 N i [47:0] $end
$var wire 1 - rw $end
$var reg 48 O o [47:0] $end
$upscope $end
$scope module r0 $end
$var wire 1 + clk $end
$var wire 16 P i [15:0] $end
$var wire 2 Q rw [1:0] $end
$var reg 16 R o [15:0] $end
$upscope $end
$scope module r1 $end
$var wire 1 + clk $end
$var wire 16 S i [15:0] $end
$var wire 2 T rw [1:0] $end
$var reg 16 U o [15:0] $end
$upscope $end
$scope module r2 $end
$var wire 1 + clk $end
$var wire 16 V i [15:0] $end
$var wire 2 W rw [1:0] $end
$var reg 16 X o [15:0] $end
$upscope $end
$scope module r3 $end
$var wire 1 + clk $end
$var wire 16 Y i [15:0] $end
$var wire 2 Z rw [1:0] $end
$var reg 16 [ o [15:0] $end
$upscope $end
$scope module r4 $end
$var wire 1 + clk $end
$var wire 16 \ i [15:0] $end
$var wire 2 ] rw [1:0] $end
$var reg 16 ^ o [15:0] $end
$upscope $end
$scope module r5 $end
$var wire 1 + clk $end
$var wire 16 _ i [15:0] $end
$var wire 2 ` rw [1:0] $end
$var reg 16 a o [15:0] $end
$upscope $end
$scope module r6 $end
$var wire 1 + clk $end
$var wire 16 b i [15:0] $end
$var wire 2 c rw [1:0] $end
$var reg 16 d o [15:0] $end
$upscope $end
$scope module r7 $end
$var wire 1 + clk $end
$var wire 16 e i [15:0] $end
$var wire 2 f rw [1:0] $end
$var reg 16 g o [15:0] $end
$upscope $end
$scope module bus_1_copy $end
$var wire 1 ( en $end
$var wire 16 h i [15:0] $end
$var wire 16 i o [15:0] $end
$upscope $end
$scope module alu $end
$var wire 32 j a [31:0] $end
$var wire 1 k alu16_en $end
$var wire 16 l alu16_flag [15:0] $end
$var wire 1 m alu8_en $end
$var wire 16 n alu8_flag [15:0] $end
$var wire 32 o b [31:0] $end
$var wire 1 ! en $end
$var wire 16 p flag_o [15:0] $end
$var wire 5 q func [4:0] $end
$var wire 16 r o1 [15:0] $end
$var wire 16 s o2 [15:0] $end
$var wire 1 * size $end
$var reg 16 t flag [15:0] $end
$scope module alu8 $end
$var wire 16 u a [15:0] $end
$var wire 16 v b [15:0] $end
$var wire 1 m en $end
$var wire 16 w flag_i [15:0] $end
$var wire 16 x flag_o [15:0] $end
$var wire 5 y func [4:0] $end
$var wire 8 z o1 [7:0] $end
$var wire 8 { o2 [7:0] $end
$var reg 16 | flag [15:0] $end
$var reg 8 } r1 [7:0] $end
$var reg 8 ~ r2 [7:0] $end
$upscope $end
$scope module alu16 $end
$var wire 32 !" a [31:0] $end
$var wire 32 "" b [31:0] $end
$var wire 1 k en $end
$var wire 16 #" flag_i [15:0] $end
$var wire 16 $" flag_o [15:0] $end
$var wire 5 %" func [4:0] $end
$var wire 16 &" o1 [15:0] $end
$var wire 16 '" o2 [15:0] $end
$var reg 16 (" flag [15:0] $end
$var reg 16 )" r1 [15:0] $end
$var reg 16 *" r2 [15:0] $end
$upscope $end
$upscope $end
$scope module jmp_check $end
$var wire 16 +" addr [15:0] $end
$var wire 16 ," cr [15:0] $end
$var wire 1 3 en $end
$var wire 16 -" flag [15:0] $end
$var wire 16 ." pc_i [15:0] $end
$var wire 16 /" pc_o [15:0] $end
$var wire 4 0" type [3:0] $end
$var reg 1 1" con $end
$upscope $end
$scope module loop_check $end
$var wire 16 2" addr [15:0] $end
$var wire 16 3" counter_i [15:0] $end
$var wire 16 4" counter_o [15:0] $end
$var wire 1 5 en $end
$var wire 16 5" pc_i [15:0] $end
$var wire 16 6" pc_o [15:0] $end
$var wire 2 7" type [1:0] $end
$var wire 1 8" zf $end
$var reg 1 9" con $end
$upscope $end
$scope module sys_command $end
$var wire 1 * cl_size $end
$var wire 48 :" cmd [47:0] $end
$var wire 1 ? en $end
$var wire 16 ;" flag [15:0] $end
$var wire 16 <" o [15:0] $end
$var wire 16 =" r0 [15:0] $end
$var wire 16 >" r1 [15:0] $end
$var wire 16 ?" r2 [15:0] $end
$var wire 16 @" r3 [15:0] $end
$var wire 16 A" r4 [15:0] $end
$var wire 16 B" r5 [15:0] $end
$var wire 16 C" r6 [15:0] $end
$var wire 16 D" r7 [15:0] $end
$upscope $end
$scope module stage_decode $end
$var wire 16 E" bus_i_en_0 [15:0] $end
$var wire 16 F" bus_i_en_1 [15:0] $end
$var wire 16 G" bus_o_en_0 [15:0] $end
$var wire 16 H" bus_o_en_1 [15:0] $end
$var wire 48 I" cmd_o [47:0] $end
$var wire 1 / en $end
$var wire 32 J" mem_addr [31:0] $end
$var wire 16 K" r0 [15:0] $end
$var wire 16 L" r1 [15:0] $end
$var wire 16 M" r2 [15:0] $end
$var wire 16 N" r3 [15:0] $end
$var wire 16 O" r4 [15:0] $end
$var wire 16 P" r5 [15:0] $end
$var wire 16 Q" r6 [15:0] $end
$var wire 16 R" r7 [15:0] $end
$var reg 5 S" alu_func [4:0] $end
$var reg 1 T" cl_size $end
$var reg 1 U" diff_mem $end
$var reg 16 V" mem_addr_d [15:0] $end
$var reg 16 W" mem_addr_w [15:0] $end
$var reg 2 X" pc_inc [1:0] $end
$scope function memaddrcalc $end
$var reg 16 Y" addr [15:0] $end
$var reg 16 Z" memaddrcalc [15:0] $end
$var reg 4 [" mode [3:0] $end
$upscope $end
$scope function regsize $end
$var reg 4 \" r [3:0] $end
$var reg 1 ]" regsize $end
$upscope $end
$upscope $end
$scope begin genblk1 $end
$upscope $end
$scope begin genblk01 $end
$upscope $end
$upscope $end
$enddefinitions $end
#0
$dumpvars
x]"
bx \"
bx ["
bx Z"
bx Y"
bx X"
bx W"
bx V"
0U"
xT"
bx S"
bx R"
bx Q"
bx P"
bx O"
bx N"
bx M"
bx L"
bx K"
bx J"
bx I"
b0 H"
b0 G"
b0 F"
b0 E"
bx D"
bx C"
bx B"
bx A"
bx @"
bx ?"
bx >"
bx ="
bx <"
bx ;"
bx :"
x9"
x8"
bx 7"
bz 6"
b0 5"
bz 4"
bx 3"
bx 2"
x1"
bx 0"
bz /"
b0 ."
bx -"
bx ,"
bx +"
bx *"
bx )"
bx ("
bz '"
bz &"
bx %"
bx $"
bx #"
bx ""
bx !"
bx ~
bx }
bx |
bz {
bz z
bx y
bx x
bx w
bx v
bx u
bx t
bz s
bz r
bx q
bx p
bx o
bx n
0m
bx l
0k
bx j
bz i
bx h
bx g
b0 f
bz e
bx d
b0 c
bz b
bx a
b0 `
bz _
bx ^
b0 ]
bz \
bx [
b0 Z
bz Y
bx X
b0 W
bz V
bx U
b0 T
bz S
bx R
b0 Q
bz P
bx O
b10100100000000100111000100000000101000110000 N
b0 M
b0 L
bx K
b0 J
b10100100000000100111000100000000101000110000 I
bx H
b0 G
b0 F
0E
bx D
bz C
bx B
bz A
0@
0?
b0 >
0=
b0 <
bx ;
b0 :
b0 9
b10100100000000100111000100000000101000110000 8
bx 7
b0 6
05
bz 4
03
bz 2
11
00
0/
bx .
1-
bx ,
0+
x*
bz )
0(
bz '
bz &
bx %
bx $
bx #
bx "
0!
$end
#10
b10011100010000 C
bx A
b1 H"
b10 X"
b10 ;
b1010000000000 G"
b11 F"
b100010100 E"
bz u
bz v
bxzzzzzzzzzzzzzzzz $
bxzzzzzzzzzzzzzzzz j
bxzzzzzzzzzzzzzzzz !"
bxzzzzzzzzzzzzzzzz %
bxzzzzzzzzzzzzzzzz o
bxzzzzzzzzzzzzzzzz ""
b10 :
b10 L
1T"
1*
1]"
b100 \"
bx 8
bx I
bx N
bx 6
bx G
b1 7"
b1001 0"
bz B
bxzzzzzzzzzzzzzzzz H
bz K
bz +"
bz 2"
bz <"
bz D
bz h
b1 F
0-
1/
01
b1 >
b10100100000000100111000100000000101000110000 O
b10100100000000100111000100000000101000110000 ,
b10100100000000100111000100000000101000110000 :"
b10100100000000100111000100000000101000110000 I"
1E
1+
#20
b10011100010000 )
b10011100010000 i
b10011100010000 A
bz C
b10011100010000 v
bx u
1(
b0 :
b0 L
bx0010011100010000 %
bx0010011100010000 o
bx0010011100010000 ""
bx $
bx j
bx !"
b100 M
b100 <
b100 ."
b100 5"
b10 F
10
0/
b10 >
b10011100010000 D
b10011100010000 h
bx B
bx H
bx K
bx +"
bx 2"
bx <"
0E
0+
#30
b10011100010000 u
bz v
b11 `
b10011100010000 _
bz A
bx0010011100010000 $
bx0010011100010000 j
bx0010011100010000 !"
bz )
bz i
bxzzzzzzzzzzzzzzzz %
bxzzzzzzzzzzzzzzzz o
bxzzzzzzzzzzzzzzzz ""
0(
b10011100010000 B
bx0010011100010000 H
b10011100010000 K
b10011100010000 +"
b10011100010000 2"
b10011100010000 <"
bz D
bz h
b11 F
1@
00
b11 >
1E
1+
#40
b0 `
bz u
b10100011000000000000010010000000100001110011 8
b10100011000000000000010010000000100001110011 I
b10100011000000000000010010000000100001110011 N
b100 6
b100 G
bz _
bxzzzzzzzzzzzzzzzz $
bxzzzzzzzzzzzzzzzz j
bxzzzzzzzzzzzzzzzz !"
b10011100010000 a
b10011100010000 B"
b10011100010000 P"
b0 F
1-
0@
11
b0 >
bz B
bxzzzzzzzzzzzzzzzz H
bz K
bz +"
bz 2"
bz <"
0E
0+
#50
b1001100000000 G"
b1 H"
b11 F"
b100010011 E"
bx A
b1001000 C
b10 :
b10 L
b11 \"
bx 8
bx I
bx N
bx 6
bx G
b0 7"
b1000 0"
b1 F
0-
1/
01
b1 >
b10100011000000000000010010000000100001110011 O
b10100011000000000000010010000000100001110011 ,
b10100011000000000000010010000000100001110011 :"
b10100011000000000000010010000000100001110011 I"
1E
1+
#60
b1001000 )
b1001000 i
b1001000 A
bz C
b1001000 v
bx u
1(
b0 :
b0 L
bx0000000001001000 %
bx0000000001001000 o
bx0000000001001000 ""
bx $
bx j
bx !"
b1000 M
b1000 <
b1000 ."
b1000 5"
b10 F
10
0/
b10 >
b1001000 D
b1001000 h
bx B
bx H
bx K
bx +"
bx 2"
bx <"
0E
0+
#70
b1001000 u
bz v
b11 Q
b1001000 P
bz A
bx0000000001001000 $
bx0000000001001000 j
bx0000000001001000 !"
bz )
bz i
bxzzzzzzzzzzzzzzzz %
bxzzzzzzzzzzzzzzzz o
bxzzzzzzzzzzzzzzzz ""
0(
b1001000 B
bx0000000001001000 H
b1001000 K
b1001000 +"
b1001000 2"
b1001000 <"
bz D
bz h
b11 F
1@
00
b11 >
1E
1+
#80
b0 Q
bz u
b10000111001100001010101100000000000001100101 8
b10000111001100001010101100000000000001100101 I
b10000111001100001010101100000000000001100101 N
b1000 6
b1000 G
bz P
bxzzzzzzzzzzzzzzzz $
bxzzzzzzzzzzzzzzzz j
bxzzzzzzzzzzzzzzzz !"
b1001000 R
b1001000 ="
b1001000 K"
b0 F
1-
0@
11
b0 >
bz B
bxzzzzzzzzzzzzzzzz H
bz K
bz +"
bz 2"
bz <"
0E
0+
#90
b1 X"
b1 ;
b1011100000000 G"
b1 H"
b10011 F"
b100010111 E"
bx A
b1001000 C
b1 :
b1 L
b111 \"
bx 8
bx I
bx N
bx 6
bx G
b1 7"
b1 0"
b1 F
0-
1/
01
b1 >
b10000111001100001010101100000000000001100101 O
b10000111001100001010101100000000000001100101 ,
b10000111001100001010101100000000000001100101 :"
b10000111001100001010101100000000000001100101 I"
1E
1+
#100
b1001000 )
b1001000 i
b1001000 A
bz C
b1001000 v
bx u
1(
b0 :
b0 L
bx0000000001001000 %
bx0000000001001000 o
bx0000000001001000 ""
bx $
bx j
bx !"
b1010 M
b1010 <
b1010 ."
b1010 5"
b10 F
10
0/
b10 >
b1001000 D
b1001000 h
bx B
bx H
bx K
bx +"
bx 2"
bx <"
0E
0+
#110
b1001000 u
bz v
b11 T
b1001000 S
bz A
bx0000000001001000 $
bx0000000001001000 j
bx0000000001001000 !"
bz )
bz i
bxzzzzzzzzzzzzzzzz %
bxzzzzzzzzzzzzzzzz o
bxzzzzzzzzzzzzzzzz ""
0(
b1001000 B
bx0000000001001000 H
b1001000 K
b1001000 +"
b1001000 2"
b1001000 <"
bz D
bz h
b11 F
1@
00
b11 >
1E
1+
#120
b0 T
bz u
b10101011000000000000011001010010000010110111 8
b10101011000000000000011001010010000010110111 I
b10101011000000000000011001010010000010110111 N
b1010 6
b1010 G
bz S
bxzzzzzzzzzzzzzzzz $
bxzzzzzzzzzzzzzzzz j
bxzzzzzzzzzzzzzzzz !"
b1001000 U
b1001000 >"
b1001000 L"
b0 F
1-
0@
11
b0 >
bz B
bxzzzzzzzzzzzzzzzz H
bz K
bz +"
bz 2"
bz <"
0E
0+
#130
b10 X"
b10 ;
b1101100000000 G"
b1 H"
b11 F"
b100011011 E"
bx A
b1100101 C
b10 :
b10 L
b1011 \"
bx 8
bx I
bx N
bx 6
bx G
b10 7"
b1010 0"
b1 F
0-
1/
01
b1 >
b10101011000000000000011001010010000010110111 O
b10101011000000000000011001010010000010110111 ,
b10101011000000000000011001010010000010110111 :"
b10101011000000000000011001010010000010110111 I"
1E
1+
#140
b1100101 )
b1100101 i
b1100101 A
bz C
b1100101 v
bx u
1(
b0 :
b0 L
bx0000000001100101 %
bx0000000001100101 o
bx0000000001100101 ""
bx $
bx j
bx !"
b1110 M
b1110 <
b1110 ."
b1110 5"
b10 F
10
0/
b10 >
b1100101 D
b1100101 h
bx B
bx H
bx K
bx +"
bx 2"
bx <"
0E
0+
#150
b1100101 u
bz v
b11 W
b1100101 V
bz A
bx0000000001100101 $
bx0000000001100101 j
bx0000000001100101 !"
bz )
bz i
bxzzzzzzzzzzzzzzzz %
bxzzzzzzzzzzzzzzzz o
bxzzzzzzzzzzzzzzzz ""
0(
b1100101 B
bx0000000001100101 H
b1100101 K
b1100101 +"
b1100101 2"
b1100101 <"
bz D
bz h
b11 F
1@
00
b11 >
1E
1+
#160
b0 W
bz u
b1000001011011100010000011110110000101101010101 8
b1000001011011100010000011110110000101101010101 I
b1000001011011100010000011110110000101101010101 N
b1110 6
b1110 G
bz V
bxzzzzzzzzzzzzzzzz $
bxzzzzzzzzzzzzzzzz j
bxzzzzzzzzzzzzzzzz !"
b1100101 X
b1100101 ?"
b1100101 M"
b1100101 .
b1100101 ,"
b1100101 3"
b0 F
1-
0@
11
b0 >
bz B
bxzzzzzzzzzzzzzzzz H
bz K
bz +"
bz 2"
bz <"
0E
0+
#170
b1 S"
b1 #
b1 q
b1 y
b1 %"
b1 X"
b1 ;
b1101100000101 G"
b0 H"
b10111 F"
b10100011011 E"
b1100101 A
b1001000 C
b1 :
b1 L
bx 8
bx I
bx N
bx 6
bx G
b10 0"
b1 F
0-
1/
01
b1 >
b1000001011011100010000011110110000101101010101 O
b1000001011011100010000011110110000101101010101 ,
b1000001011011100010000011110110000101101010101 :"
b1000001011011100010000011110110000101101010101 I"
1E
1+
#180
08"
bx0000 t
bx0000 w
bx0000 #"
bx0000 "
bx0000 p
bx0000 -"
bx0000 ;"
bx0000 ("
bx0000 l
bx0000 $"
b11101 )"
b11101 &
b11101 r
b11101 &"
bx '
bx s
bx '"
1k
b11101 A
bz C
b1001000 v
b1100101 u
1!
b0 :
b0 L
bx0000000001001000 %
bx0000000001001000 o
bx0000000001001000 ""
bx0000000001100101 $
bx0000000001100101 j
bx0000000001100101 !"
b10000 M
b10000 <
b10000 ."
b10000 5"
b10 F
10
0/
b10 >
b1001000 D
b1001000 h
b1100101 B
bx0000000001100101 H
b1100101 K
b1100101 +"
b1100101 2"
b1100101 <"
0E
0+
#190
bz &
bz r
bz &"
bz '
bz s
bz '"
b11101 u
bz v
b11 W
b11101 V
bz A
0k
bx0000000000011101 $
bx0000000000011101 j
bx0000000000011101 !"
bxzzzzzzzzzzzzzzzz %
bxzzzzzzzzzzzzzzzz o
bxzzzzzzzzzzzzzzzz ""
0!
b11101 B
bx0000000000011101 H
b11101 K
b11101 +"
b11101 2"
b11101 <"
bz D
bz h
b11 F
1@
00
b11 >
1E
1+
#200
b0 W
bz u
b100000111101100001011010101010000000000000000 8
b100000111101100001011010101010000000000000000 I
b100000111101100001011010101010000000000000000 N
b10000 6
b10000 G
bz V
bxzzzzzzzzzzzzzzzz $
bxzzzzzzzzzzzzzzzz j
bxzzzzzzzzzzzzzzzz !"
b11101 X
b11101 ?"
b11101 M"
b11101 .
b11101 ,"
b11101 3"
b0 F
1-
0@
11
b0 >
bz B
bxzzzzzzzzzzzzzzzz H
bz K
bz +"
bz 2"
bz <"
0E
0+
#210
b0 S"
b0 #
b0 q
b0 y
b0 %"
b1011100000101 G"
b11011 F"
b10100010111 E"
b1001000 A
b11101 C
b1 :
b1 L
b111 \"
bx 8
bx I
bx N
bx 6
bx G
b1 7"
b1 0"
b1 F
0-
1/
01
b1 >
b100000111101100001011010101010000000000000000 O
b100000111101100001011010101010000000000000000 ,
b100000111101100001011010101010000000000000000 :"
b100000111101100001011010101010000000000000000 I"
1E
1+
#220
bx0000 ("
b1100101 )"
b1100101 &
b1100101 r
b1100101 &"
bx '
bx s
bx '"
1k
b1100101 A
bz C
b11101 v
b1001000 u
1!
b0 :
b0 L
bx0000000000011101 %
bx0000000000011101 o
bx0000000000011101 ""
bx0000000001001000 $
bx0000000001001000 j
bx0000000001001000 !"
b10010 M
b10010 <
b10010 ."
b10010 5"
b10 F
10
0/
b10 >
b11101 D
b11101 h
b1001000 B
bx0000000001001000 H
b1001000 K
b1001000 +"
b1001000 2"
b1001000 <"
0E
0+
#230
bz &
bz r
bz &"
bz '
bz s
bz '"
b1100101 u
bz v
b11 T
b1100101 S
bz A
0k
bx0000000001100101 $
bx0000000001100101 j
bx0000000001100101 !"
bxzzzzzzzzzzzzzzzz %
bxzzzzzzzzzzzzzzzz o
bxzzzzzzzzzzzzzzzz ""
0!
b1100101 B
bx0000000001100101 H
b1100101 K
b1100101 +"
b1100101 2"
b1100101 <"
bz D
bz h
b11 F
1@
00
b11 >
1E
1+
#240
b0 T
bz u
b10110101010100000000000000000000101101010101 8
b10110101010100000000000000000000101101010101 I
b10110101010100000000000000000000101101010101 N
b10010 6
b10010 G
bz S
bxzzzzzzzzzzzzzzzz $
bxzzzzzzzzzzzzzzzz j
bxzzzzzzzzzzzzzzzz !"
b1100101 U
b1100101 >"
b1100101 L"
b0 F
1-
0@
11
b0 >
bz B
bxzzzzzzzzzzzzzzzz H
bz K
bz +"
bz 2"
bz <"
0E
0+
#250
b100111000100000010011100010000 7
b100111000100000010011100010000 J"
b1 H"
b10 X"
b10 ;
b10011100010000 V"
b1000000000 G"
b10101 F"
b100000010 E"
b0 A
b1100101 C
b10 :
b10 L
0T"
0*
0]"
b101 \"
b10011100010000 Z"
b0 Y"
b101 ["
b0 8
b0 I
b0 N
b10011100010000 6
b10011100010000 G
b1101 0"
b1 F
0-
1/
01
b1 >
b10110101010100000000000000000000101101010101 O
b10110101010100000000000000000000101101010101 ,
b10110101010100000000000000000000101101010101 :"
b10110101010100000000000000000000101101010101 I"
1E
1+
#260
bz C
b1100101 )
b1100101 i
b1100101 A
bx 8
bx I
bx N
bx 6
bx G
b1100101 v
b0 u
1(
b0 :
b0 L
bx0000000001100101 %
bx0000000001100101 o
bx0000000001100101 ""
bx0000000000000000 $
bx0000000000000000 j
bx0000000000000000 !"
b10110 M
b10110 <
b10110 ."
b10110 5"
b10 F
10
0/
b10 >
b1100101 D
b1100101 h
b0 B
bx0000000000000000 H
b0 K
b0 +"
b0 2"
b0 <"
0E
0+
#270
b0 8
b0 I
b0 N
b10011100010000 6
b10011100010000 G
b1100101 u
bz v
b1 9
b1 J
bz A
bx0000000001100101 $
bx0000000001100101 j
bx0000000001100101 !"
bz )
bz i
bxzzzzzzzzzzzzzzzz %
bxzzzzzzzzzzzzzzzz o
bxzzzzzzzzzzzzzzzz ""
0(
b1100101 B
bx0000000001100101 H
b1100101 K
b1100101 +"
b1100101 2"
b1100101 <"
bz D
bz h
b11 F
1@
00
b11 >
1E
1+
#280
b0 9
b0 J
bz u
b10110 6
b10110 G
bxzzzzzzzzzzzzzzzz $
bxzzzzzzzzzzzzzzzz j
bxzzzzzzzzzzzzzzzz !"
b10110101010100000000000000010101110001010001 8
b10110101010100000000000000010101110001010001 I
b10110101010100000000000000010101110001010001 N
b0 F
1-
0@
11
b0 >
bz B
bxzzzzzzzzzzzzzzzz H
bz K
bz +"
bz 2"
bz <"
0E
0+
#290
b100111000100010010011100010001 7
b100111000100010010011100010001 J"
b10011100010001 V"
b1000000000 G"
b1 H"
b10101 F"
b100000010 E"
b1100101 C
b0 A
b10 :
b10 L
b10011100010001 Z"
b1 Y"
b0 8
b0 I
b0 N
b10011100010001 6
b10011100010001 G
b1 F
0-
1/
01
b1 >
b10110101010100000000000000010101110001010001 O
b10110101010100000000000000010101110001010001 ,
b10110101010100000000000000010101110001010001 :"
b10110101010100000000000000010101110001010001 I"
1E
1+
#300
bz C
b1100101 )
b1100101 i
b1100101 A
bx 8
bx I
bx N
bx 6
bx G
b1100101 v
b0 u
1(
b0 :
b0 L
bx0000000001100101 %
bx0000000001100101 o
bx0000000001100101 ""
bx0000000000000000 $
bx0000000000000000 j
bx0000000000000000 !"
b11010 M
b11010 <
b11010 ."
b11010 5"
b10 F
10
0/
b10 >
b1100101 D
b1100101 h
b0 B
bx0000000000000000 H
b0 K
b0 +"
b0 2"
b0 <"
0E
0+
#310
b0 8
b0 I
b0 N
b10011100010001 6
b10011100010001 G
b1100101 u
bz v
b1 9
b1 J
bz A
bx0000000001100101 $
bx0000000001100101 j
bx0000000001100101 !"
bz )
bz i
bxzzzzzzzzzzzzzzzz %
bxzzzzzzzzzzzzzzzz o
bxzzzzzzzzzzzzzzzz ""
0(
b1100101 B
bx0000000001100101 H
b1100101 K
b1100101 +"
b1100101 2"
b1100101 <"
bz D
bz h
b11 F
1@
00
b11 >
1E
1+
#320
b0 9
b0 J
bz u
b11010 6
b11010 G
bxzzzzzzzzzzzzzzzz $
bxzzzzzzzzzzzzzzzz j
bxzzzzzzzzzzzzzzzz !"
b10111000101000100000000000000000000000000001000 8
b10111000101000100000000000000000000000000001000 I
b10111000101000100000000000000000000000000001000 N
b0 F
1-
0@
11
b0 >
bz B
bxzzzzzzzzzzzzzzzz H
bz K
bz +"
bz 2"
bz <"
0E
0+
#330
b100111000100000010011100010000 7
b100111000100000010011100010000 J"
b10000 S"
b10000 #
b10000 q
b10000 y
b10000 %"
b11 X"
b11 ;
b10011100010000 V"
b1000000101 G"
b0 H"
b100 F"
b10100000010 E"
b1000 C
b110010101100101 A
b11 :
b11 L
1T"
1*
b10011100010000 Z"
b0 Y"
b11001010110010100000000000000000000000000000000 8
b11001010110010100000000000000000000000000000000 I
b11001010110010100000000000000000000000000000000 N
b10011100010000 6
b10011100010000 G
b1 0"
b1 F
0-
1/
01
b1 >
b10111000101000100000000000000000000000000001000 O
b10111000101000100000000000000000000000000001000 ,
b10111000101000100000000000000000000000000001000 :"
b10111000101000100000000000000000000000000001000 I"
1E
1+
#340
bx0000 ("
b1100101 &
b1100101 r
b1100101 &"
bx '
bx s
bx '"
1k
b1100101 A
bz C
bx 8
bx I
bx N
bx 6
bx G
b1000 v
b110010101100101 u
1!
b0 :
b0 L
bx0000000000001000 %
bx0000000000001000 o
bx0000000000001000 ""
bx0110010101100101 $
bx0110010101100101 j
bx0110010101100101 !"
b100000 M
b100000 <
b100000 ."
b100000 5"
b10 F
10
0/
b10 >
b1000 D
b1000 h
b110010101100101 B
bx0110010101100101 H
b110010101100101 K
b110010101100101 +"
b110010101100101 2"
b110010101100101 <"
0E
0+
#350
b11001010110010100000000000000000000000000000000 8
b11001010110010100000000000000000000000000000000 I
b11001010110010100000000000000000000000000000000 N
b10011100010000 6
b10011100010000 G
bz &
bz r
bz &"
bz '
bz s
bz '"
b1100101 u
bz v
b10 9
b10 J
bz A
0k
bx0000000001100101 $
bx0000000001100101 j
bx0000000001100101 !"
bxzzzzzzzzzzzzzzzz %
bxzzzzzzzzzzzzzzzz o
bxzzzzzzzzzzzzzzzz ""
0!
b1100101 B
bx0000000001100101 H
b1100101 K
b1100101 +"
b1100101 2"
b1100101 <"
bz D
bz h
b11 F
1@
00
b11 >
1E
1+
#360
b0 9
b0 J
bz u
b100000 6
b100000 G
bxzzzzzzzzzzzzzzzz $
bxzzzzzzzzzzzzzzzz j
bxzzzzzzzzzzzzzzzz !"
b10011011010100000000000000000000100011111011 8
b10011011010100000000000000000000100011111011 I
b10011011010100000000000000000000100011111011 N
b0 F
1-
0@
11
b0 >
bz B
bxzzzzzzzzzzzzzzzz H
bz K
bz +"
bz 2"
bz <"
0E
0+
#370
b1 H"
b10 X"
b10 ;
b1101100000000 G"
b10 F"
b100011011 E"
b11101 A
b1100101 C
b10 :
b10 L
1]"
b1011 \"
b110010100000000000000000000000000000000 8
b110010100000000000000000000000000000000 I
b110010100000000000000000000000000000000 N
b10011100010000 6
b10011100010000 G
b10 7"
b110 0"
b1 F
0-
1/
01
b1 >
b10011011010100000000000000000000100011111011 O
b10011011010100000000000000000000100011111011 ,
b10011011010100000000000000000000100011111011 :"
b10011011010100000000000000000000100011111011 I"
1E
1+
#380
b1100101 )
b1100101 i
b1100101 A
bz C
bx 8
bx I
bx N
bx 6
bx G
b1100101 v
b11101 u
1(
b0 :
b0 L
bx0000000001100101 %
bx0000000001100101 o
bx0000000001100101 ""
bx0000000000011101 $
bx0000000000011101 j
bx0000000000011101 !"
b100100 M
b100100 <
b100100 ."
b100100 5"
b10 F
10
0/
b10 >
b1100101 D
b1100101 h
b11101 B
bx0000000000011101 H
b11101 K
b11101 +"
b11101 2"
b11101 <"
0E
0+
#390
b110010100000000000000000000000000000000 8
b110010100000000000000000000000000000000 I
b110010100000000000000000000000000000000 N
b10011100010000 6
b10011100010000 G
b1100101 u
bz v
b11 W
b1100101 V
bz A
bx0000000001100101 $
bx0000000001100101 j
bx0000000001100101 !"
bz )
bz i
bxzzzzzzzzzzzzzzzz %
bxzzzzzzzzzzzzzzzz o
bxzzzzzzzzzzzzzzzz ""
0(
b1100101 B
bx0000000001100101 H
b1100101 K
b1100101 +"
b1100101 2"
b1100101 <"
bz D
bz h
b11 F
1@
00
b11 >
1E
1+
#400
b0 W
bz u
b10001111101100001010101100000000000000000111 8
b10001111101100001010101100000000000000000111 I
b10001111101100001010101100000000000000000111 N
b100100 6
b100100 G
bz V
bxzzzzzzzzzzzzzzzz $
bxzzzzzzzzzzzzzzzz j
bxzzzzzzzzzzzzzzzz !"
b1100101 X
b1100101 ?"
b1100101 M"
b1100101 .
b1100101 ,"
b1100101 3"
b0 F
1-
0@
11
b0 >
bz B
bxzzzzzzzzzzzzzzzz H
bz K
bz +"
bz 2"
bz <"
0E
0+
#410
b1 X"
b1 ;
b1111100000000 G"
b1 H"
b11011 F"
b100011111 E"
bx A
b1100101 C
b1 :
b1 L
b1111 \"
b110010100000000000000000000000000000000 8
b110010100000000000000000000000000000000 I
b110010100000000000000000000000000000000 N
b10011100010000 6
b10011100010000 G
b11 7"
b11 0"
b1 F
0-
1/
01
b1 >
b10001111101100001010101100000000000000000111 O
b10001111101100001010101100000000000000000111 ,
b10001111101100001010101100000000000000000111 :"
b10001111101100001010101100000000000000000111 I"
1E
1+
#420
b1100101 )
b1100101 i
b1100101 A
bz C
bx 8
bx I
bx N
bx 6
bx G
b1100101 v
bx u
1(
b0 :
b0 L
bx0000000001100101 %
bx0000000001100101 o
bx0000000001100101 ""
bx $
bx j
bx !"
b100110 M
b100110 <
b100110 ."
b100110 5"
b10 F
10
0/
b10 >
b1100101 D
b1100101 h
bx B
bx H
bx K
bx +"
bx 2"
bx <"
0E
0+
